<?xml version="1.0"?>
<!DOCTYPE svg PUBLIC "-//W3C//DTD SVG 1.1//EN" "http://www.w3.org/Graphics/SVG/1.1/DTD/svg11.dtd">
<svg xmlns="http://www.w3.org/2000/svg" width="128" height="128">
  <g transform="scale(0.25)">
    <ellipse fill="none" stroke="green" stroke-width="24" cx="256" cy="350" rx="240" ry="150"/>
    <ellipse fill="yellow" stroke="green" stroke-width="24" cx="256" cy="350" rx="63" ry="145"/>
    <line stroke="green" stroke-width="48" x1="24" y1="0mm" x2="215" y2="496"/>
    <line stroke="green" stroke-width="48" x1="488" y1="0mm" x2="295" y2="496"/>
    <text x="256" y="150" style="font-family: Verdana; font-size: 130; fill: darkred; font-weight: bold; text-anchor: middle">SVG</text>
  </g>
</svg>
